^E:\UDEMYGITREPO\ASSEMBLY-LANGUAGE-LEARN-ASSEMBLY-PROGRAMMING-FAST-IN-2020\SECTION02-FIRSTSTEPINASSEMBLY\JUMPSANDDATATYPES\JUMPSANDDATATYPES.CPP|E:\UDEMYGITREPO\ASSEMBLY-LANGUAGE-LEARN-ASSEMBLY-PROGRAMMING-FAST-IN-2020\SECTION02-FIRSTSTEPINASSEMBLY\JUMPSANDDATATYPES\STDAFX.CPP
E:\UDEMYGITREPO\ASSEMBLY-LANGUAGE-LEARN-ASSEMBLY-PROGRAMMING-FAST-IN-2020\SECTION02-FIRSTSTEPINASSEMBLY\JUMPSANDDATATYPES\DEBUG\VC142.PDB
E:\UDEMYGITREPO\ASSEMBLY-LANGUAGE-LEARN-ASSEMBLY-PROGRAMMING-FAST-IN-2020\SECTION02-FIRSTSTEPINASSEMBLY\JUMPSANDDATATYPES\DEBUG\VC142.IDB
E:\UDEMYGITREPO\ASSEMBLY-LANGUAGE-LEARN-ASSEMBLY-PROGRAMMING-FAST-IN-2020\SECTION02-FIRSTSTEPINASSEMBLY\JUMPSANDDATATYPES\DEBUG\STDAFX.OBJ
E:\UDEMYGITREPO\ASSEMBLY-LANGUAGE-LEARN-ASSEMBLY-PROGRAMMING-FAST-IN-2020\SECTION02-FIRSTSTEPINASSEMBLY\JUMPSANDDATATYPES\DEBUG\JUMPSANDDATATYPES.OBJ
^E:\UDEMYGITREPO\ASSEMBLY-LANGUAGE-LEARN-ASSEMBLY-PROGRAMMING-FAST-IN-2020\SECTION02-FIRSTSTEPINASSEMBLY\JUMPSANDDATATYPES\STDAFX.CPP
E:\UDEMYGITREPO\ASSEMBLY-LANGUAGE-LEARN-ASSEMBLY-PROGRAMMING-FAST-IN-2020\SECTION02-FIRSTSTEPINASSEMBLY\JUMPSANDDATATYPES\DEBUG\VC142.PDB
^E:\UDEMYGITREPO\ASSEMBLY-LANGUAGE-LEARN-ASSEMBLY-PROGRAMMING-FAST-IN-2020\SECTION02-FIRSTSTEPINASSEMBLY\JUMPSANDDATATYPES\JUMPSANDDATATYPES.CPP
E:\UDEMYGITREPO\ASSEMBLY-LANGUAGE-LEARN-ASSEMBLY-PROGRAMMING-FAST-IN-2020\SECTION02-FIRSTSTEPINASSEMBLY\JUMPSANDDATATYPES\DEBUG\VC142.PDB
E:\UDEMYGITREPO\ASSEMBLY-LANGUAGE-LEARN-ASSEMBLY-PROGRAMMING-FAST-IN-2020\SECTION02-FIRSTSTEPINASSEMBLY\JUMPSANDDATATYPES\DEBUG\VC142.IDB
E:\UDEMYGITREPO\ASSEMBLY-LANGUAGE-LEARN-ASSEMBLY-PROGRAMMING-FAST-IN-2020\SECTION02-FIRSTSTEPINASSEMBLY\JUMPSANDDATATYPES\DEBUG\JUMPSANDDATATYPES.OBJ
